…
pipse_cplot %>%
  group_by(plot) %>%
  reframe(a_index = A_index(x = h, y = sp), H = shannon(sp), hdom = h_dom(h = h, d = d, ps = 1000))
```

```r
## # A tibble: 30 × 4
##     plot a_index     H  hdom
##    <int>   <dbl> <dbl> <dbl>
##  1     1    1.94  1.49  13.5
##  2     2    2.54  1.48  11.8
##  3     3    1.94  1.39  13.5
##  4     4    2.06  1.22  13.4
##  5     5    2.58  1.63  12.2
##  6     6    2.65  1.39  11.6
##  7     7    2.51  1.53  13.2
##  8     8    1.63  1.59  14.3
##  9     9    2.12  1.51  14.4
## 10    10    2.27  1.46  12.0
## # ℹ 20 more rows
```
…
